.............
----------------------------------------------------------------------
Ran 13 tests in 0.002s

OK
Name                Stmts   Miss Branch BrPart  Cover   Missing
---------------------------------------------------------------
Diplomacy.py           15      0      4      0   100%
TestDiplomacy.py       69      0      2      1    99%   148->exit
diplomacy_eval.py      55      0     42      0   100%
---------------------------------------------------------------
TOTAL                 139      0     48      1    99%
